<?xml version="1.0" encoding="utf-8"?>
<!-- Generator: Adobe Illustrator 18.0.0, SVG Export Plug-In . SVG Version: 6.00 Build 0)  -->
<!DOCTYPE svg PUBLIC "-//W3C//DTD SVG 1.1//EN" "http://www.w3.org/Graphics/SVG/1.1/DTD/svg11.dtd">
<svg version="1.1" id="Layer_1" xmlns="http://www.w3.org/2000/svg" xmlns:xlink="http://www.w3.org/1999/xlink" x="0px" y="0px"
	 viewBox="0 0 32 32" enable-background="new 0 0 32 32" xml:space="preserve">
<path fill="#FFFFFF" d="M30,0H2C0.9,0,0,0.9,0,2v28c0,1.1,0.9,2,2,2h15V20h-4v-5h4v-3c0-4.1,2.3-7,6-7c1.8,0,3,0,4,0v5h-2
	c-2,0-3,1-3,3v2h5l-1,5h-4v12h8c1.1,0,2-0.9,2-2V2C32,0.9,31.1,0,30,0z"/>
</svg>
