<?xml version="1.0" encoding="utf-8"?>
<!-- Generator: Adobe Illustrator 21.0.2, SVG Export Plug-In . SVG Version: 6.00 Build 0)  -->
<svg version="1.1" id="Layer_1" xmlns="http://www.w3.org/2000/svg" xmlns:xlink="http://www.w3.org/1999/xlink" x="0px" y="0px"
	 viewBox="0 0 300 300" style="enable-background:new 0 0 300 300;" xml:space="preserve">
<style type="text/css">
	.st0{fill:#26C281;}
</style>
<g id="_x32_">
	<g>
		<g>
			<path class="st0" d="M288.3,183.6c-0.5-0.1-1-0.2-1.5-0.2h1.3C288.1,183.4,288.2,183.5,288.3,183.6z"/>
		</g>
	</g>
	<path class="st0" d="M288,183.3h-1.3c0.5,0,1,0.1,1.5,0.2C288.2,183.5,288.1,183.4,288,183.3z"/>
	<path class="st0" d="M294.8,183.3H288c0.1,0.1,0.1,0.2,0.2,0.2c-0.5-0.1-1-0.2-1.5-0.2h1.3c-5.1-6.1-21.4-23.4-51.6-36.6
		c-2.2-12-7.8-24.8-17.6-26.3c-6.6-1-13.6,3.5-19.8,12.8c-0.3,0.5-0.6,1-0.9,1.5c-13.6-2.8-29-4.5-46-4.5c-23.1,0-43,3.1-59.8,7.8
		c-0.2-0.6-0.5-1.3-0.8-1.9c-5.4-11.6-26.5-33.3-40.8-25.6c-13.6,7.4-11,35.8-6,48.6c-15.7,10.1-24.9,20-28.5,24.3H7.3
		c-2.9,0-5.2,2.5-5.2,5.6s2.3,5.6,5.2,5.6h6.3l1.2,4.6c4.9,19,21.1,32.2,39.4,32.2h195.9c18.5,0,34.8-13.4,39.6-32.6l1-4.1h4
		c2.9,0,5.2-2.5,5.2-5.6S297.7,183.3,294.8,183.3z M237.4,163c0.1-1,0.2-2.1,0.2-3.3c8.6,4.2,15.9,8.6,21.9,12.8
		c-6.4-2.2-14-4.4-22.7-6.5C237,165,237.2,164,237.4,163z M231.5,176.3c9.8,2.3,18.1,4.7,25,7h-34.4
		C225.8,181.9,229,179.4,231.5,176.3z M200.1,159.4c0-0.7,0.1-1.4,0.2-2.2c0.4-2.7,1.5-6.3,3.1-9.8c1.2-2.7,2.6-5.3,4.2-7.7
		c0.6-0.9,1.2-1.7,1.8-2.5c3.3-4.3,6.1-5.8,7.7-5.8c0.1,0,0.2,0,0.3,0c2.7,0.4,5.3,4.8,7.2,10.5c1.3,4.1,2.3,8.8,2.6,13.1
		c0.2,2.3,0.1,4.5-0.1,6.3c-0.1,0.8-0.3,1.6-0.5,2.4c-1.4,4.8-5.1,8.4-9.5,9.6l1.5-11.1l1.2-8.9c0.4-3.1-1.6-5.9-4.4-6.3
		c-2.8-0.4-5.5,1.7-5.9,4.7l-1.2,8.9l-1.5,11.1l0,0c0,0,0,0-0.1,0c-1.5-1-2.8-2.2-3.8-3.7c-1.7-2.5-2.7-5.4-2.7-8.5v-0.1H200.1z
		 M55.4,120.5c0.6-0.3,1.3-0.5,2.1-0.5c3.5,0,8.6,2.9,13.3,7c4.8,4.1,9.2,9.4,11.4,14.1c-3.4,1.1-6.6,2.3-9.7,3.6l-2.5-5.3
		c-1.3-2.8-4.4-3.9-7-2.5s-3.6,4.7-2.3,7.5l2.2,4.6c-3.2,1.5-6.2,3.1-9,4.6C49.9,142.6,49.8,123.4,55.4,120.5z M50.7,168.5
		c3.1-1.9,6.4-3.9,10-5.8c2.2-1.2,4.5-2.4,6.9-3.5c3.1-1.4,6.3-2.9,9.7-4.2c1.9-0.8,3.9-1.6,6-2.3c3.5-1.3,7.1-2.4,10.9-3.5
		c16.3-4.7,35.5-7.8,57.9-7.8c15,0,28.5,1.4,40.8,3.7c-1.5,3.7-2.5,7.4-3,10.5c-0.1,1-0.2,1.9-0.2,2.9c-11.8-1.1-24.6-1.7-38.7-1.7
		c-47.7,0-82.2,7.3-104.4,14.4C47.9,170.3,49.3,169.4,50.7,168.5z M151,168c14.9,0,28.5,0.8,40.8,2c0.7,1.7,1.6,3.3,2.6,4.8
		c2.8,4,6.5,6.9,10.7,8.6H45.5C66.7,176.2,101.6,168,151,168z M279.7,195.8c-3.5,14.3-15.7,24.3-29.5,24.3h-196
		c-13.7,0-25.8-9.9-29.4-24l-0.3-1.3l255.5-0.3L279.7,195.8z"/>
	<g>
		<g>
			<path class="st0" d="M162.5,97.6"/>
		</g>
	</g>
	<g>
		<g>
			<path class="st0" d="M215.4,86.7c0,3.1-2.3,5.6-5.2,5.6h-76.9v2.3c0,8.6-6.5,15.6-14.5,15.6H91.9c-2.9,0-5.2-2.5-5.2-5.6
				S89,99,91.9,99h26.9c2.2,0,4.1-2,4.1-4.4v-2.3h-31c-2.9,0-5.2-2.5-5.2-5.6s2.3-5.6,5.2-5.6h31v-2.3c0-2.4-1.8-4.4-4.1-4.4H91.9
				c-2.9,0-5.2-2.5-5.2-5.6s2.3-5.6,5.2-5.6h26.9c8,0,14.5,7,14.5,15.5V81h76.9C213.1,81.1,215.4,83.6,215.4,86.7z"/>
		</g>
	</g>
</g>
</svg>
